{
  "previous": null,
  "next": "https://swapi.dev/api/species/?page=2",
  "previousPageNo": null,
  "nextPageNo": null,
  "count": 37,
  "results": [
    {
      "vehicles": null,
      "homeworld": "https://swapi.dev/api/planets/9/",
      "eye_colors": "brown, blue, green, hazel, grey, amber",
      "skin_colors": "caucasian, black, asian, hispanic",
      "url": "https://swapi.dev/api/species/1/",
      "created": "2014-12-10T13:52:11.567000Z",
      "edited": "2014-12-20T21:36:42.136000Z",
      "starships": null,
      "films": [
        "https://swapi.dev/api/films/1/",
        "https://swapi.dev/api/films/2/",
        "https://swapi.dev/api/films/3/",
        "https://swapi.dev/api/films/4/",
        "https://swapi.dev/api/films/5/",
        "https://swapi.dev/api/films/6/"
      ],
      "people": [
        "https://swapi.dev/api/people/66/",
        "https://swapi.dev/api/people/67/",
        "https://swapi.dev/api/people/68/",
        "https://swapi.dev/api/people/74/"
      ],
      "classification": "mammal",
      "name": "Human",
      "designation": "sentient",
      "average_height": "180",
      "average_lifespane": null,
      "hair_colors": "blonde, brown, black, red"
    },
    {
      "vehicles": null,
      "homeworld": null,
      "eye_colors": "n/a",
      "skin_colors": "n/a",
      "url": "https://swapi.dev/api/species/2/",
      "created": "2014-12-10T15:16:16.259000Z",
      "edited": "2014-12-20T21:36:42.139000Z",
      "starships": null,
      "films": [
        "https://swapi.dev/api/films/1/",
        "https://swapi.dev/api/films/2/",
        "https://swapi.dev/api/films/3/",
        "https://swapi.dev/api/films/4/",
        "https://swapi.dev/api/films/5/",
        "https://swapi.dev/api/films/6/"
      ],
      "people": [
        "https://swapi.dev/api/people/2/",
        "https://swapi.dev/api/people/3/",
        "https://swapi.dev/api/people/8/",
        "https://swapi.dev/api/people/23/"
      ],
      "classification": "artificial",
      "name": "Droid",
      "designation": "sentient",
      "average_height": "n/a",
      "average_lifespane": null,
      "hair_colors": "n/a"
    },
    {
      "vehicles": null,
      "homeworld": "https://swapi.dev/api/planets/14/",
      "eye_colors": "blue, green, yellow, brown, golden, red",
      "skin_colors": "gray",
      "url": "https://swapi.dev/api/species/3/",
      "created": "2014-12-10T16:44:31.486000Z",
      "edited": "2014-12-20T21:36:42.142000Z",
      "starships": null,
      "films": [
        "https://swapi.dev/api/films/1/",
        "https://swapi.dev/api/films/2/",
        "https://swapi.dev/api/films/3/",
        "https://swapi.dev/api/films/6/"
      ],
      "people": [
        "https://swapi.dev/api/people/13/",
        "https://swapi.dev/api/people/80/"
      ],
      "classification": "mammal",
      "name": "Wookie",
      "designation": "sentient",
      "average_height": "210",
      "average_lifespane": null,
      "hair_colors": "black, brown"
    },
    {
      "vehicles": null,
      "homeworld": "https://swapi.dev/api/planets/23/",
      "eye_colors": "black",
      "skin_colors": "green, blue",
      "url": "https://swapi.dev/api/species/4/",
      "created": "2014-12-10T17:05:26.471000Z",
      "edited": "2014-12-20T21:36:42.144000Z",
      "starships": null,
      "films": [
        "https://swapi.dev/api/films/1/"
      ],
      "people": [
        "https://swapi.dev/api/people/15/"
      ],
      "classification": "sentient",
      "name": "Rodian",
      "designation": "reptilian",
      "average_height": "170",
      "average_lifespane": null,
      "hair_colors": "n/a"
    },
    {
      "vehicles": null,
      "homeworld": "https://swapi.dev/api/planets/24/",
      "eye_colors": "yellow, red",
      "skin_colors": "green, brown, tan",
      "url": "https://swapi.dev/api/species/5/",
      "created": "2014-12-10T17:12:50.410000Z",
      "edited": "2014-12-20T21:36:42.146000Z",
      "starships": null,
      "films": [
        "https://swapi.dev/api/films/1/",
        "https://swapi.dev/api/films/3/"
      ],
      "people": [
        "https://swapi.dev/api/people/16/"
      ],
      "classification": "gastropod",
      "name": "Hutt",
      "designation": "sentient",
      "average_height": "300",
      "average_lifespane": null,
      "hair_colors": "n/a"
    },
    {
      "vehicles": null,
      "homeworld": "https://swapi.dev/api/planets/28/",
      "eye_colors": "brown, green, yellow",
      "skin_colors": "green, yellow",
      "url": "https://swapi.dev/api/species/6/",
      "created": "2014-12-15T12:27:22.877000Z",
      "edited": "2014-12-20T21:36:42.148000Z",
      "starships": null,
      "films": [
        "https://swapi.dev/api/films/2/",
        "https://swapi.dev/api/films/3/",
        "https://swapi.dev/api/films/4/",
        "https://swapi.dev/api/films/5/",
        "https://swapi.dev/api/films/6/"
      ],
      "people": [
        "https://swapi.dev/api/people/20/"
      ],
      "classification": "mammal",
      "name": "Yoda's species",
      "designation": "sentient",
      "average_height": "66",
      "average_lifespane": null,
      "hair_colors": "brown, white"
    },
    {
      "vehicles": null,
      "homeworld": "https://swapi.dev/api/planets/29/",
      "eye_colors": "yellow, orange",
      "skin_colors": "brown, green",
      "url": "https://swapi.dev/api/species/7/",
      "created": "2014-12-15T13:07:47.704000Z",
      "edited": "2014-12-20T21:36:42.151000Z",
      "starships": null,
      "films": [
        "https://swapi.dev/api/films/2/"
      ],
      "people": [
        "https://swapi.dev/api/people/24/"
      ],
      "classification": "reptile",
      "name": "Trandoshan",
      "designation": "sentient",
      "average_height": "200",
      "average_lifespane": null,
      "hair_colors": "none"
    },
    {
      "vehicles": null,
      "homeworld": "https://swapi.dev/api/planets/31/",
      "eye_colors": "yellow",
      "skin_colors": "red, blue, brown, magenta",
      "url": "https://swapi.dev/api/species/8/",
      "created": "2014-12-18T11:09:52.263000Z",
      "edited": "2014-12-20T21:36:42.153000Z",
      "starships": null,
      "films": [
        "https://swapi.dev/api/films/3/"
      ],
      "people": [
        "https://swapi.dev/api/people/27/"
      ],
      "classification": "amphibian",
      "name": "Mon Calamari",
      "designation": "sentient",
      "average_height": "160",
      "average_lifespane": null,
      "hair_colors": "none"
    },
    {
      "vehicles": null,
      "homeworld": "https://swapi.dev/api/planets/7/",
      "eye_colors": "orange, brown",
      "skin_colors": "brown",
      "url": "https://swapi.dev/api/species/9/",
      "created": "2014-12-18T11:22:00.285000Z",
      "edited": "2014-12-20T21:36:42.155000Z",
      "starships": null,
      "films": [
        "https://swapi.dev/api/films/3/"
      ],
      "people": [
        "https://swapi.dev/api/people/30/"
      ],
      "classification": "mammal",
      "name": "Ewok",
      "designation": "sentient",
      "average_height": "100",
      "average_lifespane": null,
      "hair_colors": "white, brown, black"
    },
    {
      "vehicles": null,
      "homeworld": "https://swapi.dev/api/planets/33/",
      "eye_colors": "black",
      "skin_colors": "pale",
      "url": "https://swapi.dev/api/species/10/",
      "created": "2014-12-18T11:26:20.103000Z",
      "edited": "2014-12-20T21:36:42.157000Z",
      "starships": null,
      "films": [
        "https://swapi.dev/api/films/3/"
      ],
      "people": [
        "https://swapi.dev/api/people/31/"
      ],
      "classification": "mammal",
      "name": "Sullustan",
      "designation": "sentient",
      "average_height": "180",
      "average_lifespane": null,
      "hair_colors": "none"
    }
  ]
}